module bitbucket.org/kudouk/kudo-token-package

go 1.12

require (
	github.com/dgrijalva/jwt-go v3.2.0+incompatible
	github.com/mikespook/gorbac v2.1.0+incompatible
	golang.org/x/lint v0.0.0-20190313153728-d0100b6bd8b3 // indirect
	golang.org/x/tools v0.0.0-20190524140312-2c0ae7006135 // indirect
	google.golang.org/grpc v1.28.0
	honnef.co/go/tools v0.0.0-20190523083050-ea95bdfd59fc // indirect
)
